{
  "title": "pagination",
  "type": "object",
  "x-examples": {
    "Example": {
      "page": 1,
      "limit": 10,
      "total": 9734043,
      "has_next_page": true
    }
  },
  "description": "pagination model",
  "properties": {
    "page": {
      "type": "integer",
      "default": 1,
      "minimum": 1,
      "maximum": 400
    },
    "limit": {
      "type": "integer",
      "default": 10,
      "minimum": 1,
      "maximum": 50
    },
    "total": {
      "type": "integer"
    },
    "has_next_page": {
      "type": "boolean"
    }
  },
  "required": [
    "page",
    "limit"
  ]
}